"name","name"
"разсадника","zh.k. Razsadnika"
"люлин 1","lyulin 1"
"гоце делчев","Gotse Delchev"
"редута","kv. Reduta"
"зона б-18","zh.k. Zona B-18"
"дружба 1","zh.k. Druzhba 1"
"малинова долина","Malinova Dolina"
"бункера вз","Bunkera v.z."
"младост 1","mladost 1"
"красно село","krasno selo"
"сгара яна","s.Gara Yana"
"обеля 2","Obelya 2"
"фондови жилища","fondovi zhilishta"
"гърдова глава","Gardova glava"
"иван вазов","Ivan Vazov"
"гео милев","kv. Geo Milev"
"борово","borovo"
"белите брези","belite brezi"
"хладилника","hladilnika"
"симеоново","Simeonovo"
"дианабад","Dianabad"
"до медицинска академия","do Meditsinska akademiya"
"яворов","Yavorov"
"челопечене","kv. Chelopechene"
"света троица","sveta troitsa"
"зона б 18","Zona B 18"
"красна поляна 3","Krasna polyana 3"
"враждебна","kv. Vrazhdebna"
"надежда 2","nadezhda 2"
"бели брези","Beli brezi"
"надежда 3","Nadezhda 3"
"хиподрума","zh.k. Hipodruma"
"оборище","Oborishte"
"дружба 2","Druzhba 2"
"витоша","kv. Vitosha"
"люлин 8","zh.k. Lyulin 8"
"стрелбище","Strelbishte"
"люлин 3","lyulin 3"
"надежда 1","zh.k. Nadezhda 1"
"суха река","suha reka"
"подуяне","Poduyane"
"кръстова вада","Krastova vada"
"доброславци","dobroslavtsi"
"младост 2","Mladost 2"
"бояна","Boyana"
"център","Tsentar"
"младост 3","zh.k. Mladost 3"
"люлин 6","zh.k. Lyulin 6"
"захарна фабрика","zaharna fabrika"
"младост 4","Mladost 4"
"люлин 5","zh.k. Lyulin 5"
"драгалевци","kv. Dragalevtsi"
"зона б-19","zh.k. Zona B-19"
"дървеница","kv. Darvenitsa"
"павлово","Pavlovo"
"красна поляна","krasna polyana"
"изток","Iztok"
"мусагеница","Musagenitsa"
"студентски град","zh.k. Studentski grad"
"люлин 9","zh.k. Lyulin 9"
"западен парк","Zapaden park"
"малашевци","Malashevtsi"
"овча купел","kv. Ovcha kupel"
"спанчарево","s.Pancharevo"
"зона б-5","Zona B-5"
"горна баня","gorna banya"
"връбница 2","Vrabnitsa 2"
"илинден","ilinden"
"карпузица","karpuzitsa"
"банкя","bankya"
"княжево","knyazhevo"
"люлин 2","Lyulin 2"
"толстой","tolstoy"
"левски-г","zh.k. Levski-G"
"бусманци","Busmantsi"
"взбункера","v.z.Bunkera"
"суходол","kv. Suhodol"
"грбанкя","gr.Bankya"
"бистрица","bistritsa"
"кривина","krivina"
"сердика","Serdika"
"триъгълника","triagalnika"
"кремиковци","kv. Kremikovtsi"
"модерно предградие","moderno predgradie"
"изгрев","kv. Izgrev"
"докторски паметник","Doktorski pametnik"
"войнеговци","voynegovtsi"
"аерогара","Aerogara"
"банишора","zh.k. Banishora"
"обеля 1","Obelya 1"
"свобода","zh.k. Svoboda"
"слатина","zh.k. Slatina"
"зона б19","zona b19"
"левски","kv. Levski"
"люлин 7","lyulin 7"
"враня","vranya"
"надежда 4","zh.k. Nadezhda 4"
"вз беловодски път","v.z. Belovodski pat"
"полигона","Poligona"
"ботунец","Botunets"
"люлин 4","zh.k. Lyulin 4"
"република","Republika"
"филиповци","Filipovtsi"
"горубляне","kv. Gorublyane"
"зона б5","zona b5"
"нпз искър","NPZ Iskar"
"гевгелийски","kv. Gevgeliyski"
"бъкстон","zh.k. Bakston"
"сухата река","zh.k. Suhata reka"
"военна рампа","Voenna rampa"
"бенковски","kv. Benkovski"
"сбистрица","s.Bistritsa"
"орландовци","kv. Orlandovtsi"
"вз килиите","v.z. Kiliite"
"вз американски колеж","v.z. Amerikanski kolezh"
"владая","vladaya"
"факултета","kv. Fakulteta"
"7-ми 11-ти километър","7-mi 11-ti kilometar"
"илиянци","kv. Iliyantsi"
"връбница 1","zh.k. Vrabnitsa 1"
"кокаляне","kokalyane"
"горни богров","gorni bogrov"
"клисура","klisura"
"американски колеж","Amerikanski kolezh"
"чепинци","chepintsi"
"мрамор","mramor"
"взамерикански колеж","v.z.Amerikanski kolezh"
"централна гара","tsentralna gara"
"",""
"требич","trebich"
"пирогов","pirogov"
"ботевградско шосе","botevgradsko shose"
"пасарел","pasarel"
"лозен","lozen"
"сеславци","kv. Seslavtsi"
"мировяне","mirovyane"
"мърчаево","marchaevo"
"гара искър","gara iskar"
"славия","slaviya"
"мотописта","motopista"
"околовръстен път","okolovrasten pat"
"нови искър","novi iskar"
"хаджи димитър","hadzhi dimitar"
"кътина","katina"
"летище софия","Letishte Sofiya"
"кубратово","kubratovo"
"взкилиите","v.z.Kiliite"
"кумарица","Kumaritsa"
"желява","zhelyava"
"долни богров","dolni bogrov"
"подуене","poduene"
"житен","zhiten"
"подгумер","podgumer"
"волуяк","voluyak"
"крива река","kriva reka"
"христо ботев","hristo botev"
"м-т детски град","m-t Detski grad"
"негован","negovan"
"чeлопечене","chelopechene"
"герман","german"
"лозенец","lozenets"
"железница","zheleznitsa"
"надежда 5","nadezhda 5"
"обеля","obelya"
"иваняне","ivanyane"
"долни пасарел","dolni pasarel"
"плана","plana"
"световрачене","svetovrachene"
"цариградско шосе","tsarigradsko shose"
"балша","balsha"
"мало бучино","malo buchino"
"яна","yana"
"медицинска академия","Meditsinska akademiya"
"абдовица","abdovitsa"
"панчарево","pancharevo"
"лагера","Lagera"
"димитър миленков","dimitar milenkov"
"жгрюжен парк","zh.gr.Yuzhen park"
"бул българия","bul. Balgariya"
"гниляне","Gnilyane"
"зона б18","zona b18"
"манастирски ливади","kv. Manastirski livadi"
"ж.гр.Зоопарк","Sofia Zoo"
